MSF data dictionaries and dummy datasets — msf_dict • sitrep
…
#> #   msf_involvement <fct>, date_lab_sample_taken <date>, readmission <fct>,
#> #   age_months <int>, date_of_last_vaccination <date>, case_number <chr>,
#> #   sex <fct>, patient_origin <chr>, prescribed_zinc_supplement <fct>,
#> #   delivery_event <fct>, pregnancy_outcome_at_exit <fct>, date_of_exit <date>,
#> #   date_of_consultation_admission <date>, oedema <fct>, event_file_type <fct>,
#> #   residential_status_brief <fct>, pregnant <fct>, cholera_rdt_result <fct>,
#> #   dehydration_severity_during_stay <fct>, cholera_culture_result <fct>,
#> #   foetus_alive_at_admission <fct>, treatment_facility_site <int>,
#> #   prescribed_antibiotics <fct>, cholera_referred_to <fct>,
#> #   ors_consumed_litres <int>, treatment_location <chr>,
#> #   cholera_referred_from <fct>, cholera_treatment_facility_type <fct>,
#> #   date_of_onset <date>
#> > dict <- msf_dict(disease = "Cholera", long = TRUE, compact = FALSE, tibble = TRUE)
#> > print(dict)
#> # A tibble: 182 x 11
#>    data_element_uid data_element_na… data_element_sh… data_element_de…
#>    <chr>            <chr>            <chr>            <chr>           
#>  1 FF7d81Zy0yQ      egen_013_pregna… trimester        If pregnant, tr…
#>  2 FF7d81Zy0yQ      egen_013_pregna… trimester        If pregnant, tr…
#>  3 FF7d81Zy0yQ      egen_013_pregna… trimester        If pregnant, tr…
#>  4 ADfNqpCL5kf      egen_015_exit_s… exit_status      Final status of…
#>  5 ADfNqpCL5kf      egen_015_exit_s… exit_status      Final status of…
#>  6 ADfNqpCL5kf      egen_015_exit_s… exit_status      Final status of…
#>  7 ADfNqpCL5kf      egen_015_exit_s… exit_status      Final status of…
#>  8 ADfNqpCL5kf      egen_015_exit_s… exit_status      Final status of…
#>  9 ADfNqpCL5kf      egen_015_exit_s… exit_status      Final status of…
#> 10 wjCDTwXmtix      egen_064_treatm… treatment_facil… Name of facilit…
#> # … with 172 more rows, and 7 more variables: data_element_valuetype <chr>,
#> #   data_element_formname <chr>, used_optionset_uid <chr>, option_code <chr>,
#> #   option_name <chr>, option_uid <chr>, option_order_in_set <dbl>
#> > dict <- dict %>% select(option_code, option_name, data_element_shortname, 
#> +     option_order_in_set) %>% filter(!is.na(option_code))
#> > print(dict)
#> # A tibble: 165 x 4
#>    option_code option_name             data_element_shortname  option_order_in_…
#>    <chr>       <chr>                   <chr>                               <dbl>
#>  1 1           1st trimester           trimester                               1
#>  2 2           2nd trimester           trimester                               2
#>  3 3           3rd trimester           trimester                               3
#>  4 DH          Discharged home         exit_status                             1
#>  5 DD          Dead in facility        exit_status                             2
#>  6 DOA         Dead on arrival         exit_status                             3
#>  7 LA          Left against medical a… exit_status                             4
#>  8 AD          Transferred (to an MSF… exit_status                             5
#>  9 TR          Transferred (to Extern… exit_status                             6
#> 10 NO          None                    dehydration_level_at_a…                 1
#> # … with 155 more rows
…
